{
  "name": "stack-builder",
  "description": "Creates an Nginx/PHP-FPM/MySQL stack.",
  "long_description": "Creates an Nginx/PHP-FPM/MySQL stack.",
  "maintainer": "Eric Stewart",
  "maintainer_email": "e.stewart@mac.com",
  "license": "MIT",
  "platforms": {
  },
  "dependencies": {
  },
  "recommendations": {
  },
  "suggestions": {
  },
  "conflicting": {
  },
  "providing": {
  },
  "replacing": {
  },
  "attributes": {
  },
  "groupings": {
  },
  "recipes": {
  },
  "version": "0.1.0",
  "source_url": "",
  "issues_url": ""
}